{
  "metadata": { 
    "name": "harmonic",
    "fundamental": 100.00,
    "resonators": 34
  },
  "resonators": [
		{"freq": 100.00,  "gain": 0.50000, "decay": 0.05000},
		{"freq": 200.00,  "gain": 0.45000, "decay": 0.06000},
		{"freq": 300.00,  "gain": 0.40000, "decay": 0.07000},
		{"freq": 400.00,  "gain": 0.35000, "decay": 0.08000},
		{"freq": 500.00,  "gain": 0.32000, "decay": 0.09000},
		{"freq": 600.00,  "gain": 0.30000, "decay": 0.10000},
		{"freq": 700.00,  "gain": 0.29000, "decay": 0.11000},
		{"freq": 800.00,  "gain": 0.28000, "decay": 0.12000},
		{"freq": 900.00,  "gain": 0.27000, "decay": 0.13000},
		{"freq": 1000.00, "gain": 0.26000, "decay": 0.14000},
		{"freq": 1110.00, "gain": 0.25000, "decay": 0.15000},
		{"freq": 1200.00, "gain": 0.24000, "decay": 0.16000},
		{"freq": 1300.00, "gain": 0.23000, "decay": 0.17000},
		{"freq": 1400.00, "gain": 0.22000, "decay": 0.18000},
		{"freq": 1500.00, "gain": 0.21000, "decay": 0.19000},
		{"freq": 1600.00, "gain": 0.20000, "decay": 0.20000},
		{"freq": 1700.00, "gain": 0.19000, "decay": 0.21000},
		{"freq": 1800.00, "gain": 0.18000, "decay": 0.22000},
		{"freq": 1900.00, "gain": 0.17000, "decay": 0.23000},
		{"freq": 2000.00, "gain": 0.16000, "decay": 0.24000},
		{"freq": 2100.00, "gain": 0.15000, "decay": 0.25000},
		{"freq": 2200.00, "gain": 0.14000, "decay": 0.26000},
		{"freq": 2300.00, "gain": 0.13000, "decay": 0.27000},
		{"freq": 2400.00, "gain": 0.12000, "decay": 0.28000},
		{"freq": 2500.00, "gain": 0.11000, "decay": 0.29000},
		{"freq": 2600.00, "gain": 0.10000, "decay": 0.30000},
		{"freq": 2700.00, "gain": 0.09000, "decay": 0.31000},
		{"freq": 2800.00, "gain": 0.08000, "decay": 0.32000},
		{"freq": 2900.00, "gain": 0.07000, "decay": 0.33000},
		{"freq": 3000.00, "gain": 0.06000, "decay": 0.34000},
		{"freq": 3100.00, "gain": 0.05000, "decay": 0.35000},
		{"freq": 3200.00, "gain": 0.04000, "decay": 0.36000},
		{"freq": 3300.00, "gain": 0.03000, "decay": 0.37000},
		{"freq": 3400.00, "gain": 0.02000, "decay": 0.38000},
		{"freq": 3500.00, "gain": 0.01000, "decay": 0.39000}
	]
}