{
  "metadata": { 
    "name": "harmonic",
    "fundamental": 100.00,
    "resonators": 34
  },
  "resonators": [
		{"freq": 100.00,  "gain": 0.50000, "decay": 0.1000},
		{"freq": 200.00,  "gain": 0.50000, "decay": 0.1000},
		{"freq": 300.00,  "gain": 0.50000, "decay": 0.1000},
		{"freq": 400.00,  "gain": 0.50000, "decay": 0.1000},
		{"freq": 500.00,  "gain": 0.50000, "decay": 0.1000},
		{"freq": 600.00,  "gain": 0.50000, "decay": 0.1000},
		{"freq": 700.00,  "gain": 0.50000, "decay": 0.1000},
		{"freq": 800.00,  "gain": 0.50000, "decay": 0.1000},
		{"freq": 900.00,  "gain": 0.50000, "decay": 0.1000},
		{"freq": 1000.00, "gain": 0.50000, "decay": 0.1000},
		{"freq": 1110.00, "gain": 0.50000, "decay": 0.1000},
		{"freq": 1200.00, "gain": 0.50000, "decay": 0.1000},
		{"freq": 1300.00, "gain": 0.50000, "decay": 0.1000},
		{"freq": 1400.00, "gain": 0.50000, "decay": 0.1000},
		{"freq": 1500.00, "gain": 0.50000, "decay": 0.1000},
		{"freq": 1600.00, "gain": 0.50000, "decay": 0.1000},
		{"freq": 1700.00, "gain": 0.50000, "decay": 0.1000},
		{"freq": 1800.00, "gain": 0.50000, "decay": 0.1000},
		{"freq": 1900.00, "gain": 0.50000, "decay": 0.1000},
		{"freq": 2000.00, "gain": 0.50000, "decay": 0.1000},
		{"freq": 2100.00, "gain": 0.50000, "decay": 0.1000},
		{"freq": 2200.00, "gain": 0.50000, "decay": 0.1000},
		{"freq": 2300.00, "gain": 0.50000, "decay": 0.1000},
		{"freq": 2400.00, "gain": 0.50000, "decay": 0.1000},
		{"freq": 2500.00, "gain": 0.50000, "decay": 0.1000},
		{"freq": 2600.00, "gain": 0.50000, "decay": 0.1000},
		{"freq": 2700.00, "gain": 0.50000, "decay": 0.1000},
		{"freq": 2800.00, "gain": 0.50000, "decay": 0.1000},
		{"freq": 2900.00, "gain": 0.50000, "decay": 0.1000},
		{"freq": 3000.00, "gain": 0.50000, "decay": 0.1000},
		{"freq": 3100.00, "gain": 0.50000, "decay": 0.1000},
		{"freq": 3200.00, "gain": 0.50000, "decay": 0.1000},
		{"freq": 3300.00, "gain": 0.50000, "decay": 0.1000},
		{"freq": 3400.00, "gain": 0.50000, "decay": 0.1000},
		{"freq": 3500.00, "gain": 0.50000, "decay": 0.1000}
	]
}